Premier League Transfer Data
…
url_transfer <- "https://www.transfermarkt.co.uk/premier-league/fuenfjahresvergleich/wettbewerb/GB1"
df_transfer <- read_html(url_transfer) %>%
        html_nodes(".items") %>%
        html_table(fill=TRUE) %>%
      as.data.frame()
as_tibble(df_transfer)

## # A tibble: 21 x 21
##    verein_id Club  Club.1 X18.19 X17.18 X16.17 X15.16 X14.15 Total Club.2
##    <lgl>     <chr> <chr>  <chr>  <chr>  <chr>  <chr>  <chr>  <chr> <lgl> 
##  1 NA        ""    ""     -1,0~ -711~ -607~ -550~ -410~ -3,~ NA    
##  2 NA        Manc~ -20.~ -203~ -160~ -126~ -51.~ -563~ <NA>  NA    
##  3 NA        Manc~ -46.~ -137~ -124~ -48.~ -131~ -488~ <NA>  NA    
##  4 NA        Tott~ 4.82m -15.~ -28.~ 14.9~ -3.8~ -28.~ <NA>  NA    
##  5 NA        Live~ -129~ 18.5~ 4.93m -31.~ -46.~ -184~ <NA>  NA    
##  6 NA        Chel~ -133~ -54.~ -21.~ -2.7~ 6.44m -205~ <NA>  NA    
##  7 NA        Arse~ -67.~ 3.02m -92.~ -21.~ -82.~ -260~ <NA>  NA    
##  8 NA        Burn~ -22.~ 12.8~ -39.~ -4.5~ -11.~ -65.~ <NA>  NA    
##  9 NA        Ever~ -64.~ -69.~ -22.~ -34.~ -34.~ -224~ <NA>  NA    
## 10 NA        Leic~ -16.~ -35.~ -23.~ -36.~ -20.~ -132~ <NA>  NA    
## # ... with 11 more rows, and 11 more variables: X18.19.1 <chr>,
## #   X17.18.1 <chr>, X16.17.1 <chr>, X15.16.1 <chr>, X14.15.1 <chr>,
## #   X13.14 <chr>, X12.13 <chr>, X11.12 <chr>, X10.11 <chr>, X09.10 <chr>,
## #   Total.1 <chr>
…
